…
+   每个观测值或案例都有自己的行，并且

+   每个值都有自己的单元格。

# 筛选观测值

可以使用 `filter()` 函数根据观测值进行筛选。这个函数适用于 [定量](https://statsandr.com/blog/variable-types-and-examples/#quantitative) 和 [定性](https://statsandr.com/blog/variable-types-and-examples/#qualitative) 变量：

```py
# filter observations based on a quantitative variable
filter(dat, body_mass_g > 4000)
```

```py
## # A tibble: 172 × 4
##    species body_mass_g sex    year
##    <fct>         <int> <fct> <int>
##  1 Adelie         4675 male   2007
##  2 Adelie         4250 <NA>   2007
##  3 Adelie         4400 male   2007
##  4 Adelie         4500 male   2007
##  5 Adelie         4200 male   2007
##  6 Adelie         4150 male   2007
##  7 Adelie         4650 male   2007
##  8 Adelie         4400 male   2007
##  9 Adelie         4600 male   2007
## 10 Adelie         4150 male   2007
## # ℹ 162 more rows
```

```py
# filter observations based on a qualitative variable
filter(dat, sex == "female")
```

```py
## # A tibble: 165 × 4
##    species body_mass_g sex     year
##    <fct>         <int> <fct>  <int>
##  1 Adelie         3800 female  2007
##  2 Adelie         3250 female  2007
##  3 Adelie         3450 female  2007
##  4 Adelie         3625 female  2007
##  5 Adelie         3200 female  2007
##  6 Adelie         3700 female  2007
##  7 Adelie         3450 female  2007
##  8 Adelie         3325 female  2007
##  9 Adelie         3400 female  2007
## 10 Adelie         3800 female  2007
## # ℹ 155 more rows
```

你可以使用 `&` 组合多个条件（如果条件必须是累积的）或 `|`（如果条件是替代的），例如：

```py
# filter observations based on 2 cumulative conditions
filter(dat, body_mass_g > 4000 & sex == "female")
```

```py
## # A tibble: 58 × 4
##    species body_mass_g sex     year
##    <fct>         <int> <fct>  <int>
##  1 Gentoo         4500 female  2007
##  2 Gentoo         4450 female  2007
##  3 Gentoo         4550 female  2007
##  4 Gentoo         4800 female  2007
##  5 Gentoo         4400 female  2007
##  6 Gentoo         4650 female  2007
##  7 Gentoo         4650 female  2007
##  8 Gentoo         4200 female  2007
##  9 Gentoo         4150 female  2007
## 10 Gentoo         4800 female  2007
## # ℹ 48 more rows
```
…
管道操作符允许执行一系列操作，即将一系列计算连接在一起。当你对数据框执行多个操作时特别有用，你不想在每个中间步骤保存输出。我们将在下面看到如何使用管道操作符进行多个操作，但现在我想先介绍单次操作的使用。

正如你所见，使用`filter()`函数时，管道操作符不是强制性的。然而，我强烈推荐它（即使是对初学者），因为它易于使用、方便、代码可读性高且流行，从现在起，`{dplyr}`中可用的函数将与管道操作符一起展示。

所以使用管道操作符，上述代码变成了：

```py
# filter observations based on a quantitative variable
dat |>
  filter(body_mass_g > 4000)
```

```py
## # A tibble: 172 × 4
##    species body_mass_g sex    year
##    <fct>         <int> <fct> <int>
##  1 Adelie         4675 male   2007
##  2 Adelie         4250 <NA>   2007
##  3 Adelie         4400 male   2007
##  4 Adelie         4500 male   2007
##  5 Adelie         4200 male   2007
##  6 Adelie         4150 male   2007
##  7 Adelie         4650 male   2007
##  8 Adelie         4400 male   2007
##  9 Adelie         4600 male   2007
## 10 Adelie         4150 male   2007
## # ℹ 162 more rows
```

```py
# filter observations based on a qualitative variable
dat |>
  filter(sex == "female")
```

```py
## # A tibble: 165 × 4
##    species body_mass_g sex     year
##    <fct>         <int> <fct>  <int>
##  1 Adelie         3800 female  2007
##  2 Adelie         3250 female  2007
##  3 Adelie         3450 female  2007
##  4 Adelie         3625 female  2007
##  5 Adelie         3200 female  2007
##  6 Adelie         3700 female  2007
##  7 Adelie         3450 female  2007
##  8 Adelie         3325 female  2007
##  9 Adelie         3400 female  2007
## 10 Adelie         3800 female  2007
## # ℹ 155 more rows
```

```py
# filter observations based on 2 cumulative conditions
dat |>
  filter(body_mass_g > 4000 & sex == "female")
```

```py
## # A tibble: 58 × 4
##    species body_mass_g sex     year
##    <fct>         <int> <fct>  <int>
##  1 Gentoo         4500 female  2007
##  2 Gentoo         4450 female  2007
##  3 Gentoo         4550 female  2007
##  4 Gentoo         4800 female  2007
##  5 Gentoo         4400 female  2007
##  6 Gentoo         4650 female  2007
##  7 Gentoo         4650 female  2007
##  8 Gentoo         4200 female  2007
##  9 Gentoo         4150 female  2007
## 10 Gentoo         4800 female  2007
## # ℹ 48 more rows
```
…
要根据变量的值提取观察值，请使用：

+   `slice_min()`用于选择具有**最低**值的行（按定义的比例），并且

+   `slice_max()`用于选择具有**最高**值的行（按定义的比例）。

```py
# extract observations with 25% lowest body mass
dat |>
  slice_min(body_mass_g, prop = 0.25)
```

```py
## # A tibble: 89 × 4
##    species   body_mass_g sex     year
##    <fct>           <int> <fct>  <int>
##  1 Chinstrap        2700 female  2008
##  2 Adelie           2850 female  2008
##  3 Adelie           2850 female  2008
##  4 Adelie           2900 female  2008
##  5 Adelie           2900 female  2008
##  6 Adelie           2900 female  2009
##  7 Chinstrap        2900 female  2007
##  8 Adelie           2925 female  2009
##  9 Adelie           2975 <NA>    2007
## 10 Adelie           3000 female  2007
## # ℹ 79 more rows
```

```py
# extract observations with 25% highest body mass
dat |>
  slice_max(body_mass_g, prop = 0.25)
```

```py
## # A tibble: 90 × 4
##    species body_mass_g sex    year
##    <fct>         <int> <fct> <int>
##  1 Gentoo         6300 male   2007
##  2 Gentoo         6050 male   2007
##  3 Gentoo         6000 male   2008
##  4 Gentoo         6000 male   2009
##  5 Gentoo         5950 male   2008
##  6 Gentoo         5950 male   2009
##  7 Gentoo         5850 male   2007
##  8 Gentoo         5850 male   2007
##  9 Gentoo         5850 male   2009
## 10 Gentoo         5800 male   2008
## # ℹ 80 more rows
```
…
```py
# random sample of half of the rows
dat |>
  sample_frac(size = 1 / 2)
```

```py
## # A tibble: 172 × 4
##    species   body_mass_g sex     year
##    <fct>           <int> <fct>  <int>
##  1 Adelie           4150 male    2008
##  2 Gentoo           5800 male    2008
##  3 Adelie           3650 male    2009
##  4 Adelie           3500 male    2009
##  5 Adelie           3450 female  2007
##  6 Adelie           4300 male    2009
##  7 Chinstrap        3400 female  2008
##  8 Adelie           3950 male    2007
##  9 Chinstrap        3325 female  2009
## 10 Adelie           3950 male    2008
## # ℹ 162 more rows
```
…
```py
# random sample of half of the rows
dat |>
  slice_sample(prop = 1 / 2)
```

```py
## # A tibble: 172 × 4
##    species body_mass_g sex     year
##    <fct>         <int> <fct>  <int>
##  1 Adelie         3900 male    2009
##  2 Adelie         3275 female  2009
##  3 Gentoo         5050 male    2008
##  4 Gentoo         4700 female  2009
##  5 Gentoo         4600 female  2008
##  6 Gentoo         4875 <NA>    2009
##  7 Adelie         3700 <NA>    2007
##  8 Gentoo         3950 female  2008
##  9 Gentoo         4550 female  2007
## 10 Adelie         3500 female  2008
## # ℹ 162 more rows
```

# 排序观察值

可以使用`arrange()`函数对观察值进行排序：

```py
# sort observations based on body mass (ascending order)
dat |>
  arrange(body_mass_g)
```

```py
## # A tibble: 344 × 4
##    species   body_mass_g sex     year
##    <fct>           <int> <fct>  <int>
##  1 Chinstrap        2700 female  2008
##  2 Adelie           2850 female  2008
##  3 Adelie           2850 female  2008
##  4 Adelie           2900 female  2008
##  5 Adelie           2900 female  2008
##  6 Adelie           2900 female  2009
##  7 Chinstrap        2900 female  2007
##  8 Adelie           2925 female  2009
##  9 Adelie           2975 <NA>    2007
## 10 Adelie           3000 female  2007
## # ℹ 334 more rows
```

默认情况下，`arrange()`使用**升序**。要按**降序**排序，请在`arrange()`内部使用`desc()`：

```py
# sort observations based on body mass (descending order)
dat |>
  arrange(desc(body_mass_g))
```

```py
## # A tibble: 344 × 4
##    species body_mass_g sex    year
##    <fct>         <int> <fct> <int>
##  1 Gentoo         6300 male   2007
##  2 Gentoo         6050 male   2007
##  3 Gentoo         6000 male   2008
##  4 Gentoo         6000 male   2009
##  5 Gentoo         5950 male   2008
##  6 Gentoo         5950 male   2009
##  7 Gentoo         5850 male   2007
##  8 Gentoo         5850 male   2007
##  9 Gentoo         5850 male   2009
## 10 Gentoo         5800 male   2008
## # ℹ 334 more rows
```

与`filter()`一样，`arrange()`可以用于多个变量，并且对定量和定性变量都有效：

```py
# sort observations based on two variables
dat |>
  arrange(sex, body_mass_g)
```

```py
## # A tibble: 344 × 4
##    species   body_mass_g sex     year
##    <fct>           <int> <fct>  <int>
##  1 Chinstrap        2700 female  2008
##  2 Adelie           2850 female  2008
##  3 Adelie           2850 female  2008
##  4 Adelie           2900 female  2008
##  5 Adelie           2900 female  2008
##  6 Adelie           2900 female  2009
##  7 Chinstrap        2900 female  2007
##  8 Adelie           2925 female  2009
##  9 Adelie           3000 female  2007
## 10 Adelie           3000 female  2009
## # ℹ 334 more rows
```
…
选择变量可以使用`select()`函数，基于：

+   变量的位置，或

+   变量的名称。

```py
# select variables by their positions
dat |>
  select(c(2, 4))
```

```py
## # A tibble: 344 × 2
##    body_mass_g  year
##          <int> <int>
##  1        3750  2007
##  2        3800  2007
##  3        3250  2007
##  4          NA  2007
##  5        3450  2007
##  6        3650  2007
##  7        3625  2007
##  8        4675  2007
##  9        3475  2007
## 10        4250  2007
## # ℹ 334 more rows
```

```py
# select variables by their names
dat |>
  select(body_mass_g, year)
```

```py
## # A tibble: 344 × 2
##    body_mass_g  year
##          <int> <int>
##  1        3750  2007
##  2        3800  2007
##  3        3250  2007
##  4          NA  2007
##  5        3450  2007
##  6        3650  2007
##  7        3625  2007
##  8        4675  2007
##  9        3475  2007
## 10        4250  2007
## # ℹ 334 more rows
```

请注意，也可以删除变量。为此，请在其位置或名称前使用`-`符号：

```py
# remove variables by their positions
dat |>
  select(-c(2, 4))
```

```py
## # A tibble: 344 × 2
##    species sex   
##    <fct>   <fct> 
##  1 Adelie  male  
##  2 Adelie  female
##  3 Adelie  female
##  4 Adelie  <NA>  
##  5 Adelie  female
##  6 Adelie  male  
##  7 Adelie  female
##  8 Adelie  male  
##  9 Adelie  <NA>  
## 10 Adelie  <NA>  
## # ℹ 334 more rows
```

```py
# remove variables by their names
dat |>
  select(-c(body_mass_g, year))
```

```py
## # A tibble: 344 × 2
##    species sex   
##    <fct>   <fct> 
##  1 Adelie  male  
##  2 Adelie  female
##  3 Adelie  female
##  4 Adelie  <NA>  
##  5 Adelie  female
##  6 Adelie  male  
##  7 Adelie  female
##  8 Adelie  male  
##  9 Adelie  <NA>  
## 10 Adelie  <NA>  
## # ℹ 334 more rows
```

也可以使用一系列名称选择变量：

```py
# select all variables from species to sex
dat |>
  select(species:sex)
```

```py
## # A tibble: 344 × 3
##    species body_mass_g sex   
##    <fct>         <int> <fct> 
##  1 Adelie         3750 male  
##  2 Adelie         3800 female
##  3 Adelie         3250 female
##  4 Adelie           NA <NA>  
##  5 Adelie         3450 female
##  6 Adelie         3650 male  
##  7 Adelie         3625 female
##  8 Adelie         4675 male  
##  9 Adelie         3475 <NA>  
## 10 Adelie         4250 <NA>  
## # ℹ 334 more rows
```

最后但同样重要的是，`select()`也可以作为一种简便的方法来重新排列列的顺序：

```py
# put sex as first column, then all the others
dat |>
  select(sex, species:year)
```

```py
## # A tibble: 344 × 4
##    sex    species body_mass_g  year
##    <fct>  <fct>         <int> <int>
##  1 male   Adelie         3750  2007
##  2 female Adelie         3800  2007
##  3 female Adelie         3250  2007
##  4 <NA>   Adelie           NA  2007
##  5 female Adelie         3450  2007
##  6 male   Adelie         3650  2007
##  7 female Adelie         3625  2007
##  8 male   Adelie         4675  2007
##  9 <NA>   Adelie         3475  2007
## 10 <NA>   Adelie         4250  2007
## # ℹ 334 more rows
```
# 重命名变量

要重命名变量，请使用`rename()`函数：

```py
# rename variables
dat |>
  rename(
    body_mass = body_mass_g, # rename body_mass_g into body_mass
    study_year = year # rename year into study_year
  )
```

```py
## # A tibble: 344 × 4
##    species body_mass sex    study_year
##    <fct>       <int> <fct>       <int>
##  1 Adelie       3750 male         2007
##  2 Adelie       3800 female       2007
##  3 Adelie       3250 female       2007
##  4 Adelie         NA <NA>         2007
##  5 Adelie       3450 female       2007
##  6 Adelie       3650 male         2007
##  7 Adelie       3625 female       2007
##  8 Adelie       4675 male         2007
##  9 Adelie       3475 <NA>         2007
## 10 Adelie       4250 <NA>         2007
## # ℹ 334 more rows
```
…
+   另一个变量，或

+   选择的向量。

```py
# create a new variable based on an existing one
dat |>
  mutate(
    body_mass_kg = body_mass_g / 1000
  )
```

```py
## # A tibble: 344 × 5
##    species body_mass_g sex     year body_mass_kg
##    <fct>         <int> <fct>  <int>        <dbl>
##  1 Adelie         3750 male    2007         3.75
##  2 Adelie         3800 female  2007         3.8 
##  3 Adelie         3250 female  2007         3.25
##  4 Adelie           NA <NA>    2007        NA   
##  5 Adelie         3450 female  2007         3.45
##  6 Adelie         3650 male    2007         3.65
##  7 Adelie         3625 female  2007         3.62
##  8 Adelie         4675 male    2007         4.68
##  9 Adelie         3475 <NA>    2007         3.48
## 10 Adelie         4250 <NA>    2007         4.25
## # ℹ 334 more rows
```

```py
# create a new variable from a vector of your choice
dat |>
  mutate(
    ID = 1:nrow(dat)
  )
```

```py
## # A tibble: 344 × 5
##    species body_mass_g sex     year    ID
##    <fct>         <int> <fct>  <int> <int>
##  1 Adelie         3750 male    2007     1
##  2 Adelie         3800 female  2007     2
##  3 Adelie         3250 female  2007     3
##  4 Adelie           NA <NA>    2007     4
##  5 Adelie         3450 female  2007     5
##  6 Adelie         3650 male    2007     6
##  7 Adelie         3625 female  2007     7
##  8 Adelie         4675 male    2007     8
##  9 Adelie         3475 <NA>    2007     9
## 10 Adelie         4250 <NA>    2007    10
## # ℹ 334 more rows
```
…
假设我们想创建一个名为 `body_mass_cat` 的新变量，当 `body_mass_g` 等于或大于某个阈值时取值“High”，否则取“Low”。这种转换可以通过 `mutate()` 和 `if_else()` 的组合来完成：

```py
# if else
dat |>
  mutate(
    body_mass_cat = if_else(body_mass_g >= 4000, # condition
      "High", # output if condition is true
      "Low" # output if condition is false
    )
  )
```

```py
## # A tibble: 344 × 5
##    species body_mass_g sex     year body_mass_cat
##    <fct>         <int> <fct>  <int> <chr>        
##  1 Adelie         3750 male    2007 Low          
##  2 Adelie         3800 female  2007 Low          
##  3 Adelie         3250 female  2007 Low          
##  4 Adelie           NA <NA>    2007 <NA>         
##  5 Adelie         3450 female  2007 Low          
##  6 Adelie         3650 male    2007 Low          
##  7 Adelie         3625 female  2007 Low          
##  8 Adelie         4675 male    2007 High         
##  9 Adelie         3475 <NA>    2007 Low          
## 10 Adelie         4250 <NA>    2007 High         
## # ℹ 334 more rows
```
…
```py
## # A tibble: 344 × 5
##    species body_mass_g sex     year body_mass_cat
##    <fct>         <int> <fct>  <int> <chr>        
##  1 Adelie         3750 male    2007 Medium       
##  2 Adelie         3800 female  2007 Medium       
##  3 Adelie         3250 female  2007 Low          
##  4 Adelie           NA <NA>    2007 <NA>         
##  5 Adelie         3450 female  2007 Low          
##  6 Adelie         3650 male    2007 Medium       
##  7 Adelie         3625 female  2007 Medium       
##  8 Adelie         4675 male    2007 Medium       
##  9 Adelie         3475 <NA>    2007 Low          
## 10 Adelie         4250 <NA>    2007 Medium       
## # ℹ 334 more rows
```
…
```py
# case when, without a default option
dat |>
  mutate(
    body_mass_cat = case_when(
      body_mass_g < 3500 ~ "Low",
      body_mass_g >= 3500 & body_mass_g <= 4750 ~ "Medium",
      body_mass_g > 4750 ~ "High"
    )
  )
```

```py
## # A tibble: 344 × 5
##    species body_mass_g sex     year body_mass_cat
##    <fct>         <int> <fct>  <int> <chr>        
##  1 Adelie         3750 male    2007 Medium       
##  2 Adelie         3800 female  2007 Medium       
##  3 Adelie         3250 female  2007 Low          
##  4 Adelie           NA <NA>    2007 <NA>         
##  5 Adelie         3450 female  2007 Low          
##  6 Adelie         3650 male    2007 Medium       
##  7 Adelie         3625 female  2007 Medium       
##  8 Adelie         4675 male    2007 Medium       
##  9 Adelie         3475 <NA>    2007 Low          
## 10 Adelie         4250 <NA>    2007 Medium       
## # ℹ 334 more rows
```
…
```py
# case when, with a default option
dat |>
  mutate(
    body_mass_cat = case_when(
      body_mass_g < 3500 ~ "Low",
      body_mass_g > 4750 ~ "High",
      .default = "Medium" # default output
    )
  )
```

```py
## # A tibble: 344 × 5
##    species body_mass_g sex     year body_mass_cat
##    <fct>         <int> <fct>  <int> <chr>        
##  1 Adelie         3750 male    2007 Medium       
##  2 Adelie         3800 female  2007 Medium       
##  3 Adelie         3250 female  2007 Low          
##  4 Adelie           NA <NA>    2007 Medium       
##  5 Adelie         3450 female  2007 Low          
##  6 Adelie         3650 male    2007 Medium       
##  7 Adelie         3625 female  2007 Medium       
##  8 Adelie         4675 male    2007 Medium       
##  9 Adelie         3475 <NA>    2007 Low          
## 10 Adelie         4250 <NA>    2007 Medium       
## # ℹ 334 more rows
```
…
```py
# case when, with a default option and missing values
dat |>
  mutate(
    body_mass_cat = case_when(
      body_mass_g < 3500 ~ "Low",
      body_mass_g > 4750 ~ "High",
      is.na(body_mass_g) ~ NA, # keep missing values as NA
      .default = "Medium" # default output
    )
  )
```

```py
## # A tibble: 344 × 5
##    species body_mass_g sex     year body_mass_cat
##    <fct>         <int> <fct>  <int> <chr>        
##  1 Adelie         3750 male    2007 Medium       
##  2 Adelie         3800 female  2007 Medium       
##  3 Adelie         3250 female  2007 Low          
##  4 Adelie           NA <NA>    2007 <NA>         
##  5 Adelie         3450 female  2007 Low          
##  6 Adelie         3650 male    2007 Medium       
##  7 Adelie         3625 female  2007 Medium       
##  8 Adelie         4675 male    2007 Medium       
##  9 Adelie         3475 <NA>    2007 Low          
## 10 Adelie         4250 <NA>    2007 Medium       
## # ℹ 334 more rows
```
…
