…
经过标记化的文本。图片来源：作者。

不过，我们可以看到诸如`is`、`a`、`for`之类的令牌不会为信息添加任何内容。认同吗？这些被称为**停用词**。我们应该有办法去除这些令牌，只留下干净的数据，即文本信息中的实际意义的令牌。

`tidytext`已经附带了集成了停用词的数据集。如果我们输入`stop_words`并运行代码，我们将能看到它。

```py
# View stop_words
stop_words

# A tibble: 1,149 × 2
   word        lexicon
   <chr>       <chr>  
 1 a           SMART  
 2 a's         SMART  
 3 able        SMART  
 4 about       SMART  
 5 above       SMART  
 6 according   SMART  
 7 accordingly SMART  
 8 across      SMART  
 9 actually    SMART  
10 after       SMART  
# … with 1,139 more rows
```

注意到包含单词的列命名为`word`。这也是我们将标记化列命名为该变量名的原因，这样更容易将两个数据集连接起来。因此，我们现在的工作是将它们连接起来，去除停用词。我们可以使用`anti_join()`函数，它只保留数据集 A 中存在但在 B 中不存在的单词。在序列中，我们只需计数并按出现频率排序。

```py
# Removing stopwords and counting frequencies
tokens %>% 
  anti_join(stop_words) %>% 
  count(word, sort = TRUE)

# Result
# A tibble: 79 × 2
   word            n
   <chr>       <int>
 1 language        4
 2 data            3
 3 environment     3
 4 programming     3
 5 software        3
 6 statistical     3
 7 computing       2
 8 created         2
 9 gnu             2
10 interface       2
# … with 69 more rows
```
…
# Running the function
text_freq_counter(text)

[OUT]
# A tibble: 50 × 2
   word            n
   <chr>       <int>
 1 amount          3
 2 textual         3
 3 data            2
 4 everyday        2
 5 information     2
 6 news            2
 7 text            2
 8 tools           2
 9 18              1
10 ai              1
# … with 40 more rows
```

效果非常好。

# 额外进阶

我们可以在这里停下来，但这个话题非常有趣，我觉得我们应该再深入一点。让我们现在向我们的文本分析器添加情感分析吧。

`tidytext`还准备好了情感分析，因为它提供了几个情感数据集。选项包括“Bing”、“Afinn”和“nrc”。让我们看看它们之间的区别。

*Bing*情感数据集包含分类为正面或负面的单词。因此，一个选项是检查你的文本中正面与负面单词的数量，从而了解情感。

```py
# Bing sentiments
get_sentiments('bing')
# A tibble: 6,786 × 2
   word        sentiment
   <chr>       <chr>    
 1 2-faces     negative 
 2 abnormal    negative 
 3 abolish     negative 
 4 abominable  negative 
 5 abominably  negative 
 6 abominate   negative 
 7 abomination negative 
 8 abort       negative 
 9 aborted     negative 
10 aborts      negative 
# … with 6,776 more rows
```

*Afinn*情感数据集，可能来源于 affinity，将单词与数字分类。数字越正面，单词越正面，反之亦然。它需要加载`library(textdata)`。

```py
library(textdata)

# Sentiments Afinn
get_sentiments('afinn')

# A tibble: 2,477 × 2
   word       value
   <chr>      <dbl>
 1 abandon       -2
 2 abandoned     -2
 3 abandons      -2
 4 abducted      -2
 5 abduction     -2
 6 abductions    -2
 7 abhor         -3
 8 abhorred      -3
 9 abhorrent     -3
10 abhors        -3
# … with 2,467 more rows
```

最终，*NRC* 会将单词分类为情感名称，如信任、惊讶等。

```py
# Sentiments Afinn
get_sentiments('nrc')

# A tibble: 13,875 × 2
   word        sentiment
   <chr>       <chr>    
 1 abacus      trust    
 2 abandon     fear     
 3 abandon     negative 
 4 abandon     sadness  
 5 abandoned   anger    
 6 abandoned   fear     
 7 abandoned   negative 
 8 abandoned   sadness  
 9 abandonment anger    
10 abandonment fear     
# … with 13,865 more rows
```
…
